[
  {
    "id": "_pb_users_auth_",
    "name": "users",
    "type": "auth",
    "system": false,
    "schema": [
      {
        "system": false,
        "id": "users_name",
        "name": "name",
        "type": "text",
        "required": false,
        "presentable": false,
        "unique": false,
        "options": {
          "min": null,
          "max": null,
          "pattern": ""
        }
      },
      {
        "system": false,
        "id": "users_avatar",
        "name": "avatar",
        "type": "file",
        "required": false,
        "presentable": false,
        "unique": false,
        "options": {
          "mimeTypes": [
            "image/jpg",
            "image/jpeg",
            "image/png",
            "image/svg+xml",
            "image/gif"
          ],
          "thumbs": null,
          "maxSelect": 1,
          "maxSize": 5242880,
          "protected": false
        }
      },
      {
        "system": false,
        "id": "dlsgajxn",
        "name": "color",
        "type": "text",
        "required": false,
        "presentable": false,
        "unique": false,
        "options": {
          "min": 4,
          "max": 7,
          "pattern": "^#([A-Fa-f0-9]{6})$"
        }
      }
    ],
    "indexes": [],
    "listRule": "",
    "viewRule": "",
    "createRule": "",
    "updateRule": "id = @request.auth.id",
    "deleteRule": "id = @request.auth.id",
    "options": {
      "allowEmailAuth": true,
      "allowOAuth2Auth": true,
      "allowUsernameAuth": true,
      "exceptEmailDomains": null,
      "manageRule": null,
      "minPasswordLength": 8,
      "onlyEmailDomains": null,
      "onlyVerified": false,
      "requireEmail": false
    }
  },
  {
    "id": "rhdq33hmy95ovd3",
    "name": "games",
    "type": "base",
    "system": false,
    "schema": [
      {
        "system": false,
        "id": "zmmavat7",
        "name": "name",
        "type": "text",
        "required": true,
        "presentable": false,
        "unique": false,
        "options": {
          "min": null,
          "max": null,
          "pattern": ""
        }
      },
      {
        "system": false,
        "id": "6r5ydggd",
        "name": "start_time",
        "type": "date",
        "required": true,
        "presentable": false,
        "unique": false,
        "options": {
          "min": "",
          "max": ""
        }
      },
      {
        "system": false,
        "id": "9zi9dlm3",
        "name": "sport",
        "type": "text",
        "required": false,
        "presentable": false,
        "unique": false,
        "options": {
          "min": null,
          "max": null,
          "pattern": ""
        }
      },
      {
        "system": false,
        "id": "gggr2nsl",
        "name": "league",
        "type": "text",
        "required": false,
        "presentable": false,
        "unique": false,
        "options": {
          "min": null,
          "max": null,
          "pattern": ""
        }
      },
      {
        "system": false,
        "id": "kh9o8jy9",
        "name": "espn_shortname",
        "type": "text",
        "required": false,
        "presentable": false,
        "unique": false,
        "options": {
          "min": null,
          "max": null,
          "pattern": ""
        }
      }
    ],
    "indexes": [],
    "listRule": "",
    "viewRule": "",
    "createRule": null,
    "updateRule": null,
    "deleteRule": null,
    "options": {}
  },
  {
    "id": "i10oe8wt5ogouk7",
    "name": "brackets",
    "type": "base",
    "system": false,
    "schema": [
      {
        "system": false,
        "id": "i3avdlem",
        "name": "name",
        "type": "text",
        "required": true,
        "presentable": false,
        "unique": false,
        "options": {
          "min": null,
          "max": null,
          "pattern": ""
        }
      },
      {
        "system": false,
        "id": "laxibhgh",
        "name": "owner",
        "type": "relation",
        "required": true,
        "presentable": false,
        "unique": false,
        "options": {
          "collectionId": "_pb_users_auth_",
          "cascadeDelete": false,
          "minSelect": null,
          "maxSelect": 1,
          "displayFields": null
        }
      },
      {
        "system": false,
        "id": "anw13nze",
        "name": "game_id",
        "type": "relation",
        "required": true,
        "presentable": false,
        "unique": false,
        "options": {
          "collectionId": "rhdq33hmy95ovd3",
          "cascadeDelete": false,
          "minSelect": null,
          "maxSelect": 1,
          "displayFields": null
        }
      },
      {
        "system": false,
        "id": "uuey4fjj",
        "name": "description",
        "type": "text",
        "required": false,
        "presentable": false,
        "unique": false,
        "options": {
          "min": null,
          "max": null,
          "pattern": ""
        }
      },
      {
        "system": false,
        "id": "zyn2vmik",
        "name": "squares",
        "type": "json",
        "required": false,
        "presentable": false,
        "unique": false,
        "options": {
          "maxSize": 256000
        }
      },
      {
        "system": false,
        "id": "lbtrg70l",
        "name": "number_sets",
        "type": "number",
        "required": true,
        "presentable": false,
        "unique": false,
        "options": {
          "min": 1,
          "max": 4,
          "noDecimal": false
        }
      }
    ],
    "indexes": [],
    "listRule": "",
    "viewRule": "",
    "createRule": "",
    "updateRule": "@request.auth.id = owner.id",
    "deleteRule": "@request.auth.id = owner.id",
    "options": {}
  },
  {
    "id": "2pw1ufslklm8vo9",
    "name": "entries",
    "type": "base",
    "system": false,
    "schema": [
      {
        "system": false,
        "id": "nscbbgkd",
        "name": "user_id",
        "type": "relation",
        "required": false,
        "presentable": false,
        "unique": false,
        "options": {
          "collectionId": "_pb_users_auth_",
          "cascadeDelete": false,
          "minSelect": null,
          "maxSelect": 1,
          "displayFields": null
        }
      },
      {
        "system": false,
        "id": "t6afaeqz",
        "name": "bracket_id",
        "type": "relation",
        "required": true,
        "presentable": false,
        "unique": false,
        "options": {
          "collectionId": "i10oe8wt5ogouk7",
          "cascadeDelete": true,
          "minSelect": null,
          "maxSelect": 1,
          "displayFields": null
        }
      },
      {
        "system": false,
        "id": "9qgyexoa",
        "name": "entry_number",
        "type": "number",
        "required": true,
        "presentable": false,
        "unique": false,
        "options": {
          "min": 1,
          "max": 100,
          "noDecimal": false
        }
      },
      {
        "system": false,
        "id": "vzn1eozk",
        "name": "membership_id",
        "type": "relation",
        "required": true,
        "presentable": false,
        "unique": false,
        "options": {
          "collectionId": "ajov70dc72esviu",
          "cascadeDelete": true,
          "minSelect": null,
          "maxSelect": 1,
          "displayFields": null
        }
      }
    ],
    "indexes": [],
    "listRule": "",
    "viewRule": "",
    "createRule": "",
    "updateRule": "@request.auth.id = bracket_id.owner.id",
    "deleteRule": "@request.auth.id = bracket_id.owner.id || @request.auth.id = user_id",
    "options": {}
  },
  {
    "id": "ajov70dc72esviu",
    "name": "bracket_users",
    "type": "base",
    "system": false,
    "schema": [
      {
        "system": false,
        "id": "qrgt8ssd",
        "name": "user",
        "type": "relation",
        "required": false,
        "presentable": false,
        "unique": false,
        "options": {
          "collectionId": "_pb_users_auth_",
          "cascadeDelete": true,
          "minSelect": null,
          "maxSelect": 1,
          "displayFields": null
        }
      },
      {
        "system": false,
        "id": "ubowusdq",
        "name": "bracket",
        "type": "relation",
        "required": true,
        "presentable": false,
        "unique": false,
        "options": {
          "collectionId": "i10oe8wt5ogouk7",
          "cascadeDelete": true,
          "minSelect": null,
          "maxSelect": 1,
          "displayFields": null
        }
      },
      {
        "system": false,
        "id": "3qnx8jjf",
        "name": "entries",
        "type": "number",
        "required": false,
        "presentable": false,
        "unique": false,
        "options": {
          "min": 0,
          "max": 100,
          "noDecimal": false
        }
      },
      {
        "system": false,
        "id": "yymgvyrn",
        "name": "custom_name",
        "type": "text",
        "required": false,
        "presentable": false,
        "unique": false,
        "options": {
          "min": null,
          "max": 32,
          "pattern": ""
        }
      }
    ],
    "indexes": [],
    "listRule": "",
    "viewRule": "",
    "createRule": "",
    "updateRule": "@request.auth.id = bracket.owner.id",
    "deleteRule": "@request.auth.id = bracket.owner.id || @request.auth.id = user",
    "options": {}
  }
]